{
  "name": "add-user-fonts",
  "title": "Add User Fonts",
  "description": "Add custom fonts from Google Fonts.",
  "author": "nickela",
  "version": "1.0",
  "scripts": ["scripts/add-user-fonts.js"],
  "minimumCoreVersion": "0.5.1",
  "url": "https://gitlab.com/foundryvtt_nickela/add-user-fonts",
  "manifest": "https://gitlab.com/foundryvtt_nickela/add-user-fonts/raw/master/module.json",
  "download": "https://gitlab.com/foundryvtt_nickela/add-user-fonts/-/archive/master/add-user-fonts.zip"
}
